@startuml
:Main Admin: as Admin
(View data from User1 and User2) as (UseAdmin)
(View own data with source differentiation ) as (Use)

User1 -> (Start)
User1 --> (Use)

User2 -> (Start)
User2 --> (Use)
Admin ---> (UseAdmin)


note right of Admin
The admin user's config
is also the sourceconfig
for the configgroup.
The shared power sources are
associated with this config.
end note


note right of (Use)
A note can also
be on several lines
end note

note "This note is connected\nto several objects." as N2
(Start) .. N2
N2 .. (Use)
@enduml